Project 1 Checkpoint #1
…
   prop = sum(pet, na.rm = TRUE)/sum(grand_total, na.rm = TRUE)

  )

`summarise()` has regrouped the output.
ℹ Summaries were computed grouped by year and country.
ℹ Output is grouped by year.
ℹ Use `summarise(.groups = "drop_last")` to silence this message.
ℹ Use `summarise(.by = c(year, country))` for per-operation grouping
  (`?dplyr::dplyr_by`) instead.

pet_props

# A tibble: 107 × 3
# Groups:   year [2]
    year country        prop
   <dbl> <chr>         <dbl>
 1  2019 Argentina    0.516 
 2  2019 Australia    1     
 3  2019 Bangladesh   0     
 4  2019 Benin        1     
 5  2019 Bhutan       1     
 6  2019 Brazil       0.0465
 7  2019 Bulgaria     1     
 8  2019 Burkina Faso 0.559 
 9  2019 Cameroon     0.380 
10  2019 Canada       0     
# ℹ 97 more rows
…
