Environmental Plastic Waste Analysis
…
gdp <- read_csv("stat431-gdp.csv")

Rows: 325 Columns: 8
── Column specification ────────────────────────────────────────────────────────
Delimiter: ","
chr (1): country
dbl (7): year, gdp_growth, gdp_nominal, gdp_per_capita_nominal, gdp_ppp, gdp...

ℹ Use `spec()` to retrieve the full column specification for this data.
ℹ Specify the column types or set `show_col_types = FALSE` to quiet this message.

gdp

# A tibble: 325 × 8
   country  year gdp_growth gdp_nominal gdp_per_capita_nominal   gdp_ppp
   <chr>   <dbl>      <dbl>       <dbl>                  <dbl>     <dbl>
 1 DOM      2019        5.1      89.0                    8595.   215.   
 2 DOM      2020       -6.7      78.9                    7554.   210.   
 3 USA      2019        2.6   21540.                    65561. 21540.   
 4 USA      2020       -2.2   21354.                    64462. 21354.   
 5 ZMB      2019        1.4      23.3                    1268.    62.2  
 6 ZMB      2020       -2.8      18.1                     958.    60.2  
 7 VUT      2019        3.2       0.93                   3187.     0.84 
 8 VUT      2020       -5         1.01                   3341.     0.809
 9 TON      2019       -0.2       0.445                  4435.     0.621
10 TON      2020        1.3       0.445                  4439.     0.638
# ℹ 315 more rows
# ℹ 2 more variables: gdp_per_capita_ppp <dbl>, gdp_ppp_share <dbl>
…
